<?xml version="1.0" encoding="UTF-8" standalone="no"?>
<!-- Created with Inkscape (http://www.inkscape.org/) -->

<svg
   width="33.159332mm"
   height="5.0050001mm"
   viewBox="0 0 33.15933 5.0050001"
   version="1.1"
   id="svg1"
   xmlns="http://www.w3.org/2000/svg"
   xmlns:svg="http://www.w3.org/2000/svg">
  <defs
     id="defs1" />
  <g
     id="layer1"
     transform="translate(-56.059501,-121.37194)">
    <g
       id="g3"
       transform="matrix(0.12976407,0,0,0.12976407,56.059484,121.37194)"
       style="fill:#00b7ff;fill-opacity:1">
      <path
         d="m 36.6,25.86 -8.96,-15.5 c -0.13,-0.22 -0.37,-0.35 -0.63,-0.35 -0.25,0 -0.5,0.15 -0.62,0.37 l -7,12.1 c -0.2,0.35 -0.07,0.8 0.28,1 0.35,0.2 0.8,0.08 1,-0.27 l 1.56,-2.7 1.85,1.36 c 0.26,0.2 0.6,0.2 0.87,0 l 2.05,-1.54 2.1,1.53 c 0.1,0.1 0.27,0.15 0.42,0.15 0.15,0 0.3,-0.04 0.43,-0.14 l 1.86,-1.37 3.34,5.77 c -0.72,1.6 -1.66,3.07 -2.8,4.4 -0.27,0.3 -0.24,0.77 0.07,1.04 0.14,0.12 0.3,0.18 0.48,0.18 0.2,0 0.4,-0.08 0.55,-0.25 1.32,-1.54 2.4,-3.26 3.2,-5.1 0.1,-0.22 0.07,-0.47 -0.04,-0.67 z m -7.08,-5.5 -2.08,-1.52 c -0.25,-0.2 -0.6,-0.2 -0.86,0 l -2.07,1.53 -1.55,-1.15 4.04,-7.02 4.07,7.02 -1.55,1.15 z"
         id="path2"
         style="fill:#00b7ff;fill-opacity:1" />
      <path
         d="m 30.35,32.66 c -3.34,2.87 -7.6,4.45 -12,4.45 -7.26,0 -13.8,-4.23 -16.8,-10.83 l 3.33,-5.78 1.85,1.36 c 0.26,0.2 0.6,0.2 0.87,0 l 2.07,-1.53 2.08,1.53 c 0.13,0.1 0.28,0.15 0.43,0.15 0.15,0 0.3,-0.04 0.43,-0.14 l 1.87,-1.37 8.1,14.05 c 0.2,0.35 0.66,0.47 1,0.26 0.36,-0.2 0.47,-0.63 0.27,-0.98 L 10.3,10.37 c -0.13,-0.22 -0.37,-0.36 -0.63,-0.36 -0.26,0 -0.5,0.15 -0.63,0.37 L 0.1,25.87 c -0.12,0.2 -0.13,0.44 -0.04,0.65 3.14,7.32 10.34,12.05 18.28,12.05 4.75,0 9.35,-1.7 12.96,-4.8 0.3,-0.27 0.34,-0.73 0.07,-1.03 -0.26,-0.3 -0.72,-0.34 -1.02,-0.08 z M 9.67,12.2 l 4.07,7.02 -1.56,1.15 -2.07,-1.53 c -0.25,-0.2 -0.6,-0.2 -0.86,0 L 7.18,20.37 5.62,19.22 9.69,12.19 Z m 8.67,-0.96 c 3.1,0 5.62,-2.52 5.62,-5.62 0,-3.1 -2.52,-5.62 -5.62,-5.62 -3.1,0 -5.62,2.52 -5.62,5.62 0,3.1 2.52,5.62 5.62,5.62 z m 0,-9.7 c 2.26,0 4.1,1.83 4.1,4.08 0,2.25 -1.84,4.1 -4.1,4.1 -2.26,0 -4.08,-1.85 -4.08,-4.1 0,-2.25 1.83,-4.1 4.08,-4.1 z"
         id="path3"
         style="fill:#00b7ff;fill-opacity:1" />
    </g>
    <path
       style="font-weight:200;font-size:5.64444px;font-family:'Fira Sans';-inkscape-font-specification:'Fira Sans Ultra-Light';letter-spacing:0.529167px;fill:#00b7ff;stroke-width:0.264583"
       d="m 63.13023,125.82459 q -0.282222,0.18062 -0.6096,0.18062 -0.321733,0 -0.507999,-0.19191 -0.180622,-0.19191 -0.180622,-0.56444 v -2.032 h -0.491067 v -0.22014 h 0.491067 v -0.71684 l 0.259644,-0.0282 v 0.74506 h 0.778933 l -0.03387,0.22014 H 62.09165 v 2.01506 q 0,0.54187 0.4572,0.54187 0.237066,0 0.474133,-0.13547 z m 2.899828,-0.51929 q 0,0.24836 0.05644,0.3556 0.06209,0.10725 0.191911,0.15804 l -0.06209,0.18627 q -0.191911,-0.0508 -0.293511,-0.16933 -0.09596,-0.11853 -0.118534,-0.34996 -0.321733,0.51929 -0.931332,0.51929 -0.417689,0 -0.6604,-0.23706 -0.242711,-0.24272 -0.242711,-0.64347 0,-0.45156 0.321733,-0.69427 0.321734,-0.24835 0.874889,-0.24835 h 0.603955 v -0.31045 q 0,-0.36689 -0.163689,-0.53622 -0.163689,-0.16933 -0.541866,-0.16933 -0.3556,0 -0.801511,0.17498 l -0.07338,-0.20885 q 0.491066,-0.19191 0.897466,-0.19191 0.485421,0 0.711199,0.23142 0.231422,0.23142 0.231422,0.68298 z m -1.123244,0.47978 q 0.570089,0 0.8636,-0.5588 v -0.84102 H 65.20597 q -0.462844,0 -0.7112,0.18626 -0.248355,0.18063 -0.248355,0.54751 0,0.31609 0.174978,0.49107 0.174977,0.17498 0.485421,0.17498 z m 4.04565,-2.8448 q 0.508,0 0.784577,0.39511 0.282222,0.38947 0.282222,1.1176 0,0.72249 -0.293511,1.14018 -0.287866,0.41204 -0.812799,0.41204 -0.276577,0 -0.496711,-0.12418 -0.220133,-0.12417 -0.372533,-0.32737 l -0.02822,0.38946 h -0.225777 v -4.14866 l 0.259644,-0.0339 v 1.65947 q 0.366888,-0.47978 0.90311,-0.47978 z m -0.07902,2.83915 q 0.417689,0 0.643466,-0.33866 0.225778,-0.33867 0.225778,-0.98778 0,-1.29258 -0.829733,-1.29258 -0.276577,0 -0.479777,0.13547 -0.197556,0.13547 -0.383822,0.39511 v 1.60302 q 0.338666,0.48542 0.824088,0.48542 z m 2.792585,-4.03577 q 0.09031,0 0.146756,0.0564 0.05644,0.0564 0.05644,0.14111 0,0.0847 -0.05644,0.14112 -0.05644,0.0564 -0.146756,0.0564 -0.09031,0 -0.146755,-0.0564 -0.05644,-0.0564 -0.05644,-0.14112 0,-0.0847 0.05644,-0.14111 0.05644,-0.0564 0.146755,-0.0564 z m 0.129822,4.19946 h -0.259646 v -2.9464 h 0.259644 z m 2.436989,-3.00284 q 0.265288,0 0.485421,0.079 0.225778,0.079 0.434622,0.24271 l -0.135466,0.17498 q -0.197556,-0.14675 -0.378178,-0.20884 -0.174977,-0.0677 -0.395111,-0.0677 -0.310444,0 -0.502355,0.14676 -0.191911,0.14111 -0.191911,0.38947 0,0.22577 0.163689,0.34995 0.163689,0.12418 0.575733,0.23707 0.508,0.13546 0.722488,0.32737 0.214489,0.18627 0.214489,0.55316 0,0.38382 -0.287866,0.61524 -0.287867,0.22578 -0.739422,0.22578 -0.333022,0 -0.575733,-0.096 -0.242711,-0.1016 -0.4572,-0.28223 l 0.146756,-0.16933 q 0.208844,0.16369 0.412044,0.24271 0.2032,0.079 0.474133,0.079 0.338666,0 0.547511,-0.15804 0.208844,-0.16369 0.208844,-0.45156 0,-0.19191 -0.06773,-0.31044 -0.06773,-0.11853 -0.237067,-0.19756 -0.169333,-0.0847 -0.491066,-0.17497 -0.474133,-0.12418 -0.677333,-0.3048 -0.2032,-0.18062 -0.2032,-0.48542 0,-0.33303 0.270933,-0.54187 0.270933,-0.21449 0.682978,-0.21449 z m 3.018364,0 q 0.265289,0 0.485422,0.079 0.225778,0.079 0.434622,0.24271 l -0.135466,0.17498 q -0.197556,-0.14675 -0.378178,-0.20884 -0.174977,-0.0677 -0.395111,-0.0677 -0.310444,0 -0.502355,0.14676 -0.191911,0.14111 -0.191911,0.38947 0,0.22577 0.163689,0.34995 0.163689,0.12418 0.575733,0.23707 0.507999,0.13546 0.722488,0.32737 0.214489,0.18627 0.214489,0.55316 0,0.38382 -0.287867,0.61524 -0.287866,0.22578 -0.739421,0.22578 -0.333022,0 -0.575733,-0.096 -0.242711,-0.1016 -0.4572,-0.28223 l 0.146756,-0.16933 q 0.208844,0.16369 0.412044,0.24271 0.2032,0.079 0.474133,0.079 0.338666,0 0.547511,-0.15804 0.208844,-0.16369 0.208844,-0.45156 0,-0.19191 -0.06773,-0.31044 -0.06773,-0.11853 -0.237067,-0.19756 -0.169333,-0.0847 -0.491066,-0.17497 -0.474133,-0.12418 -0.677333,-0.3048 -0.2032,-0.18062 -0.2032,-0.48542 0,-0.33303 0.270933,-0.54187 0.270933,-0.21449 0.682977,-0.21449 z m 2.549876,-1.19662 q 0.09031,0 0.146756,0.0564 0.05644,0.0564 0.05644,0.14111 0,0.0847 -0.05644,0.14112 -0.05645,0.0564 -0.146756,0.0564 -0.09031,0 -0.146755,-0.0564 -0.05644,-0.0564 -0.05644,-0.14112 0,-0.0847 0.05644,-0.14111 0.05644,-0.0564 0.146755,-0.0564 z m 0.129822,4.19946 h -0.259644 v -2.9464 h 0.259644 z m 4.598808,-3.00284 q 0.3556,0 0.553155,0.24271 0.197556,0.23707 0.197556,0.6604 v 2.09973 h -0.259645 v -2.06586 q 0,-0.36689 -0.141111,-0.54187 -0.135466,-0.18062 -0.389466,-0.18062 -0.259644,0 -0.474133,0.16933 -0.214489,0.16369 -0.400755,0.46849 v 2.15053 h -0.259645 v -2.06586 q 0,-0.72249 -0.530577,-0.72249 -0.259644,0 -0.474133,0.16933 -0.214489,0.16369 -0.400755,0.46849 v 2.15053 h -0.259646 v -2.9464 h 0.225777 l 0.02258,0.51929 q 0.180622,-0.27093 0.417688,-0.42333 0.237067,-0.1524 0.508,-0.1524 0.282222,0 0.468489,0.15804 0.191911,0.15805 0.253999,0.44592 0.180623,-0.28223 0.417689,-0.44027 0.242711,-0.16369 0.524933,-0.16369 z m 3.469926,0 q 0.575733,0 0.897466,0.40076 0.321733,0.39511 0.321733,1.11759 0,0.72249 -0.327377,1.13454 -0.327378,0.41204 -0.897466,0.41204 -0.570089,0 -0.897466,-0.4064 -0.321734,-0.41204 -0.321734,-1.12324 0,-0.71685 0.327378,-1.12325 0.333022,-0.41204 0.897466,-0.41204 z m 0,0.22578 q -0.445911,0 -0.699911,0.33866 -0.253999,0.33303 -0.253999,0.97085 0,0.62653 0.248355,0.9652 0.248355,0.33866 0.699911,0.33866 0.44591,0 0.69991,-0.33866 0.254,-0.33867 0.254,-0.98214 0,-0.63217 -0.248355,-0.95955 -0.248356,-0.33302 -0.699911,-0.33302 z"
       id="text1"
       aria-label="tabissimo" />
  </g>
</svg>
